crag_id,route_grade,route_type
885,HVS 5a **,trad
885,HVS 5b,trad
885,HVS 5a,trad
885,HVS 5b,trad
885,E1 5c,trad
885,E1 5b,trad
885,E4 6a *,trad
885,E4 6a *,trad
885,E3 6a,trad
885,HVS 5a ***,trad
885,HVS 5a *,trad
885,HVS 5a **,trad
885,E2 5b ***,trad
885,E2 5c,trad
885,VS 4c ***,trad
885,E1 5c ***,trad
885,E2 5c ***,trad
885,HVS 5a *,trad
885,HVS 5a,trad
885,VS 4b,trad
885,HVS 5a,trad
885,HVS 5a,trad
885,S,trad
885,S 4a **,trad
885,HS 4a,trad
885,VS 4b *,trad
885,HVS 5b,trad
885,E2 5c *,trad
885,E3 5c,trad
885,E1 5a,trad
885,E1 5b *,trad
885,HVS 5a **,trad
885,VS 4c,trad
885,HVS 5a,trad
885,E4 6a *,trad
885,VS  **,trad
885,E3 5c *,trad
885,HVS 4c,trad
885,E1 5b *,trad
885,E1 5b,trad
885,HVS 5a,trad
885,E4 5c *,trad
885,VS 4b,trad
885,S,trad
885,HVS 5a,trad
885,VS 4c,trad
885,E3 6a,trad
885,HVS 5a **,trad
885,HVS 5b **,trad
885,S,trad
885,S,trad
885,HS 4a,trad
885,VS 4b *,trad
885,VS 4b *,trad
885,VS 4b,trad
885,E1 5c,trad
885,HS 4a **,trad
885,VS 4c,trad
885,HS 4b,trad
885,HVS 5a,trad
885,S,trad
885,S,trad
885,HS 4a,trad
885,VS 5a,trad
885,HS 4b,trad
885,S 4a,trad
885,D,trad
885,S,trad
885,VS 4c,trad
885,HS,trad
885,VS 5a,trad
885,HS 4b **,trad
885,S 4a,trad
885,VD,trad
885,S,trad
885,S 4a,trad
885,S,trad
885,HS 4b,trad
885,S 4a,trad
885,VS 4b,trad
885,HVS 4c,trad
885,VS 4b **,trad
885,E2 5c *,trad
885,S 4c,trad
885,HD,trad
885,M,trad
885,VS 4c,trad
885,VD,trad
885,VD,trad
885,HVS 4c,trad
885,E2 6a,trad
885,E3 6a *,trad
885,E5 6a,trad
885,E2 5c,trad
885,E6 6b **,trad
885,E6 6b ***,trad
885,E7 6c ***,trad
885,E4 6a **,trad
885,E6 6b **,trad
885,E5 6b **,trad
885,7b+  ***,sport
885,E6 6b ***,trad
885,A2,unknown
885,E6 6c ***,trad
885,E6 6b ***,trad
885,E4 6a *,trad
885,E4 6b *,trad
885,E5 6b **,trad
885,A3,unknown
885,E2 5b *,trad
885,HS 4a,trad
885,D,trad
885,D  *,trad
885,M,trad
885,V2  *,bouldering
885,HS,trad
885,S,trad
885,S 4a,trad
885,HS 4a *,trad
885,VS 4c,trad
885,HS 4b,trad
885,HVS 4c *,trad
885,VS 4b,trad
885,D,trad
885,D,trad
885,VS 4c,trad
885,HVS 5a,trad
885,HVS 4c *,trad
885,S 4a,trad
885,E4 6a *,trad
885,E4 6a *,trad
885,E4 6b,trad
885,E3 5c,trad
885,M,trad
885,VD,trad
885,M,trad
885,S,trad
885,D,trad
885,VS 4c **,trad
885,VS 4c,trad
885,S 4a,trad
885,E6 6b *,trad
885,E5 6a **,trad
885,E5 6a **,trad
885,E5 6b **,trad
885,E5 6a *,trad
885,E3 6a,trad
885,E5 6c,trad
885,E5 6b,trad
885,E3 6a,trad
885,E3 6a,trad
885,E5 6a,trad
885,E2 5c **,trad
885,E4 6a **,trad
885,E4 6b **,trad
885,E5 6b *,trad
885,E1 5a *,trad
885,E5 6b *,trad
885,E8 6c **,trad
885,E3 5c ***,trad
885,E6 6b **,trad
885,E4 6a **,trad
885,E3 6a ***,trad
885,E6 6b ***,trad
885,E6 6b ***,trad
885,E6 6b ***,trad
885,E2 5b **,trad
885,E2 5c,trad
885,E1 5b,trad
885,E3 5c *,trad
885,E2 6a,trad
885,E3 5c **,trad
885,E2 5b **,trad
885,E4 6a,trad
885,E3 6a,trad
885,E3 5c,trad
885,E2 5c,trad
885,E2 5c,trad
885,M,trad
885,M,trad
885,D,trad
885,D,trad
885,VD,trad
885,VD,trad
885,S,trad
885,S  *,trad
885,D,trad
885,HVS 5b **,trad
885,E6 6c ***,trad
885,E4 6a *,trad
885,E4 6a *,trad
885,E2 6a,trad
885,HD 4a **,trad
885,VS 4b,trad
885,VD,trad
885,D,trad
885,VD,trad
885,VS 4c,trad
885,E3 5c **,trad
885,E4 6a ***,trad
885,E5 6a,trad
885,E3 6a *,trad
885,E5 6a,trad
885,E3 6a,trad
885,HVS 5a *,trad
885,VD,trad
885,S,trad
885,E1 5b,trad
885,HS 4a,trad
885,HVS 5a,trad
885,HVS 5a,trad
885,HVS 5a,trad
885,E1 5b *,trad
885,VS 4c *,trad
885,VS 4b *,trad
885,VS 4b,trad
885,E2 5c,trad
885,VS 4c,trad
885,E3 5c *,trad
885,E3 6a,trad
885,HVS 5a,trad
885,HVD,trad
885,S,trad
885,HS 4b,trad
885,S,trad
885,HS 4a,trad
885,HS 4b,trad
885,S 4a *,trad
885,HVS 4c,trad
885,HVS 5a **,trad
885,E3 6a *,trad
885,E3 5c **,trad
885,S 4a,trad
885,VS 4c,trad
885,S 4a,trad
885,VS 4c,trad
885,M,trad
885,M,trad
885,D,trad
885,D,trad
885,VS 4c,trad
885,E2 5b *,trad
885,VS 4c,trad
885,VS 4c,trad
885,VS 4c,trad
885,VD,trad
885,VS 4b,trad
885,VS 4b,trad
885,M,trad
885,S,trad
885,M,trad
885,M,trad
885,M,trad
885,VD,trad
885,S,trad
885,M,trad
885,HS 4c,trad
885,VS 4c,trad
885,E1 5a,trad
885,D,trad
885,D,trad
885,VD,trad
885,HS 4b,trad
885,E1 5c,trad
885,E4 6b,trad
885,E3 5c *,trad
885,E4 6a,trad
885,E1 5b *,trad
885,E2 6a,trad
885,HVS 5a,trad
885,E2 5c,trad
885,VS 4c,trad
885,HS 4b,trad
885,VD,trad
885,VD,trad
885,D  *,trad
885,VD,trad
885,HVS 5a,trad
885,D,trad
885,S  *,trad
885,S,trad
885,HS 4b,trad
885,HS 4b,trad
885,S,trad
885,S,trad
885,S,trad
885,HS 4a,trad
885,S,trad
885,HS,trad
885,HS,trad
885,VS 4c,trad
885,VS 4c,trad
885,VS 4c,trad
885,VD  *,trad
885,E4 6b *,trad
885,E1 5b,trad
885,E1 5b,trad
885,VS 4c,trad
885,M,trad
885,HS 4b,trad
885,VS 4c,trad
885,HVS 5a,trad
885,E1 5c *,trad
885,E1 5b **,trad
885,HVS 5a **,trad
885,E5 6a,trad
885,E3 5c ***,trad
885,HS 4a **,trad
885,HVS 5a,trad
885,S,trad
885,HS,trad
885,D,trad
885,E1 5b,trad
885,M,trad
885,E2 5c *,trad
885,E3 6a,trad
885,E3 5c,trad
885,S 4a,trad
885,VD,trad
885,D  *,trad
885,HVS 5b,trad
885,HS 4a,trad
885,VS 4c,trad
885,VS 4c,trad
885,HS 4c *,trad
885,E1 5b *,trad
885,HS 4b,trad
885,M,trad
885,VD,trad
885,E1 5b,trad
885,E3 5c,trad
885,HVS 4c,trad
885,VS 4b,trad
885,HVS 5a,trad
885,E1 5b,trad
885,E3 6a,trad
885,E4 5c,trad
885,HS 4b,trad
885,S,trad
885,HVS 5b,trad
885,HS 4a,trad
885,VS 4c *,trad
885,E5 6a *,trad
885,E5 6a,trad
885,E2 5b,trad
885,E4 6a,trad
885,D,trad
885,E3 6a,trad
885,E2 5b,trad
885,E2 5c,trad
885,E4 6a,trad
885,E4 6b,trad
885,E3 6b,trad
885,HVS 4c,trad
885,VS 4c,trad
885,HS 4b,trad
885,VD,trad
885,D,trad
885,D,trad
885,M,trad
885,M,trad
885,D,trad
885,M,trad
885,HS 4a,trad
885,M,trad
885,M,trad
885,VS 5a,trad
885,S,trad
885,VD,trad
885,D,trad
885,HS,trad
885,M,trad
885,VS 5a,trad
885,E2 5b *,trad
885,HVS 5a *,trad
885,VS 4c *,trad
885,M,trad
885,S,trad
885,D,trad
885,S 4c,trad
885,S 4c,trad
885,D,trad
885,E2 5b,trad
885,E2 5b,trad
885,E3 5c,trad
885,E3 6a,trad
885,E1 5b,trad
885,E2 5c,trad
885,HVS 5b,trad
885,E3 5c,trad
885,D,trad
885,VS 4b,trad
885,HS 4b,trad
885,D,trad
885,D,trad
885,VD,trad
885,VD,trad
885,S,trad
885,E4 6b *,trad
885,E3 6a,trad
885,E1 5b,trad
885,E1 5b *,trad
885,E3 6a,trad
885,E1 5b,trad
885,HVS 5b *,trad
885,VS 4b,trad
885,S,trad
885,S,trad
885,S,trad
885,M,trad
885,D,trad
885,VD,trad
885,S,trad
885,E2 5b *,trad
885,E5 6b ***,trad
885,E5 6a ***,trad
885,E5 6c **,trad
885,E6 6b **,trad
885,E4 6a **,trad
885,E1 5b **,trad
885,E3 6a **,trad
885,E3 6a,trad
885,E1 5b *,trad
885,E1 5a,trad
885,S,trad
885,HVS 5a,trad
885,S,trad
885,S,trad
885,VD,trad
885,HVS 5a,trad
8982,VS 4c,trad
8982,HS 4b,trad
8982,HS 4b,trad
8982,HVS 5a,trad
8982,E1 5b *,trad
8982,E2 5b *,trad
8982,E4 6b *,trad
8982,E5 6b,trad
8982,E1 5b,trad
8982,HVS 4c,trad
8982,E1 5b *,trad
8982,D,trad
8982,D,trad
8982,D,trad
8982,D,trad
8982,D,trad
8982,D,trad
8982,S 4a **,trad
8982,D,trad
8982,VD,trad
8982,S 4a,trad
8982,D,trad
8982,D,trad
8982,VD  *,trad
8982,VS 4b,trad
8982,HVS 4c,trad
8982,E1 5b,trad
8982,E1 5b,trad
8982,E1 5b,trad
8982,E1 5b *,trad
8982,E1 5a,trad
8982,HS 4b,trad
8982,HVS 5a,trad
8982,HVS 5a *,trad
8982,S 4a,trad
8982,S 4a,trad
8982,HVS 4c *,trad
8982,VS 4c *,trad
8982,VD,trad
8982,VS 4c *,trad
8982,M,trad
8982,VD,trad
8982,VS 4c *,trad
8982,D,trad
8982,HVS 5a,trad
8982,E1 5b,trad
8982,E1 5b,trad
8982,VD,trad
8982,VD  *,trad
8982,S 4b,trad
8982,S 4a,trad
8982,VS 4c,trad
8982,VS 4c,trad
8982,S  *,trad
8982,VS 5a *,trad
8982,VS 4c *,trad
8982,VS 4c *,trad
8982,VS 4c,trad
8982,HS 4b *,trad
8982,E2 5b *,trad
8982,HS 4c,trad
8982,HVS 5a,trad
8982,HVS 5a *,trad
8982,HS 4a,trad
8982,S 4a *,trad
8982,VD,trad
8982,D,trad
8982,VS 4c,trad
8982,D  *,trad
8982,S 4a,trad
8982,MS 4a,trad
8982,D,trad
8982,M,trad
8982,D,trad
8982,S 4a/b,trad
8982,D,trad
8982,VD,trad
8982,S 4a,trad
8982,HS 4b,trad
8982,E1 5b,trad
8982,VS 4c,trad
8982,VD,trad
8982,S,trad
8982,D,trad
8982,D,trad
8982,VD  *,trad
8982,VD  *,trad
8982,D,trad
8982,S,trad
8982,E1 5a,trad
8982,HS 4a,trad
8982,VS 4c,trad
8982,D,trad
8982,E1 5a,trad
8982,D,trad
8982,S 4a,trad
8982,HVS 5a,trad
8982,E1 5c,trad
8982,E3 5c,trad
8982,VS 4c,trad
8982,VS 4c,trad
8982,HVS 5a,trad
8982,HVS 5b *,trad
8982,HS 4b *,trad
8982,VD,trad
8982,S 4a,trad
8982,S 4a,trad
8982,VD,trad
8982,VS 4b *,trad
8982,VS 4b,trad
8982,VS 4c,trad
8982,E2 5a,trad
8982,XS 5c,trad
8982,E2 5b,trad
8982,E2 5b,trad
8982,E2 5b,trad
8982,E2 5c *,trad
8982,S,trad
8982,E2 5b,trad
8982,E2 5b,trad
8982,E3 5c **,trad
8982,E3 5c **,trad
8982,E6 6b,trad
8982,E1 5b ***,trad
8982,E3 5c ***,trad
8982,E4 6a **,trad
8982,E3 5c *,trad
8982,E3 6a,trad
8982,E1 5c,trad
8982,E2 5c,trad
8982,HVS 4c,trad
8982,HVS 5b,trad
8982,VS 4c,trad
8982,E2 5b,trad
8982,HVS 4c,trad
8982,E1 5a,trad
8982,E2 6a,trad
8982,HVS 5a *,trad
8982,E1 5b *,trad
8982,HVS 5b,trad
8982,VS 4c,trad
8982,E2 5c,trad
8982,HVS 4c,trad
8982,HVS 5a,trad
8982,HVS 5a,trad
8982,E4 6a *,trad
8982,E2 5c *,trad
8982,E1 5c *,trad
8982,VS 4c,trad
8982,VD,trad
8982,E2 5b *,trad
8982,VS 4c,trad
8982,E3 5c,trad
8982,E1 5b,trad
8982,E2 5c,trad
8982,E1 5b,trad
8982,E3 5c,trad
8982,HVS 5b,trad
8982,HVS 5b,trad
8982,HVS 5b,trad
8982,E3 5c **,trad
8982,E3 5c *,trad
8982,E1 5b *,trad
8982,E2 5b,trad
8982,E1 5b,trad
8982,E2 5b *,trad
8982,E3 5c *,trad
8982,E3 5c *,trad
8982,VS 4c *,trad
8982,E3 5c **,trad
8982,E2 5b *,trad
8982,E2 5b *,trad
8982,VS 4c *,trad
8982,D,trad
8982,E1 5b,trad
8982,E3 5c,trad
8982,E5 6b,trad
8982,E3 5c **,trad
8982,VD,trad
8982,S,trad
8982,VS 4c,trad
8982,E3 6a,trad
8982,5b,sport
8982,5c,sport
8982,5c,sport
8982,5c,sport
8982,6a+,sport
8982,6b+  **,sport
8982,E1 5a,trad
8982,E2 5c *,trad
8982,HVS 5a,trad
8982,HS 4b,trad
8982,HVS 5a *,trad
8982,VS 4b,trad
8982,E1 5b,trad
8982,E2 5b,trad
8982,E3 5c,trad
8982,E4 5c,trad
8982,E2 5b *,trad
8982,E3 5c **,trad
8982,E4 5c *,trad
8982,E2 5b,trad
8982,HVS 5a,trad
8982,V3  **,bouldering
8982,V4  *,bouldering
8982,V1  *,bouldering
8982,V3  *,bouldering
8982,V3  *,bouldering
8982,V7  ***,bouldering
8982,V5  **,bouldering
8982,V5  **,bouldering
8982,V1  *,bouldering
8982,V4  *,bouldering
881,4c,sport
881,6a  *,sport
881,E4 6a *,trad
881,E3 5c **,trad
881,6b+  ***,sport
881,6b  **,sport
881,E1 5a **,trad
881,HVS 5a,trad
881,E5 6a,trad
881,E3 5c,trad
881,E4 6a,trad
881,E4 6b,trad
881,E4 6a,trad
881,E2 5b,trad
881,E4 6a,trad
881,E5 6b *,trad
881,E1 5b,trad
881,E3 6a,trad
881,E1 5b,trad
881,E1 5b,trad
881,E1 5b,trad
881,VS 4c,trad
881,VS 4c,trad
881,S,trad
881,6b  *,sport
881,6a+  *,sport
881,6b,sport
881,6c  *,sport
881,6a+,sport
881,6b  *,sport
881,6c+  **,sport
881,6a  *,sport
881,6b  *,sport
881,6a,sport
881,6a+  *,sport
881,E5 6a *,trad
881,E4 6a *,trad
881,E6 6b *,trad
881,E5 6b *,trad
881,E1 5b,trad
881,E3 6b,trad
881,VD,trad
881,E2 5b,trad
881,VS 4c *,trad
881,VS 4c,trad
881,HVS 5a,trad
881,HVS 5a,trad
881,E1 5a,trad
881,E5 6b,trad
881,E1 5b,trad
881,E3 5c,trad
881,5b,sport
881,6a,sport
881,6a+  *,sport
881,6a+,sport
881,6b+  *,sport
881,6b+  *,sport
881,E3 5c,trad
881,6c,sport
881,6c+  *,sport
881,E5 6a,trad
881,E3 5c,trad
881,6c+  *,sport
881,6c  *,sport
881,E4 6a,trad
881,6a,sport
881,4b,sport
881,5c,sport
881,5b,sport
881,S,trad
881,5a,sport
881,6b,sport
881,Project,unknown
881,6c+,sport
881,E4 5c,trad
881,E3 6a *,trad
881,7b+  **,sport
881,E6 6b *,trad
881,E5 6b *,trad
881,7b+  **,sport
881,7b  **,sport
881,E6 6c,trad
881,7a+  **,sport
881,7a  *,sport
881,6c  ***,sport
881,6a+  ***,sport
881,6b  **,sport
881,E3 6a,trad
881,6a  *,sport
881,HVS 4c,trad
881,6a  **,sport
881,5c  *,sport
881,VS 4b,trad
881,5a,sport
881,5a  *,sport
881,5b,sport
881,6a,sport
881,6a,sport
881,5c,sport
881,5b,sport
881,5b,sport
881,6a+  *,sport
881,5a,sport
881,5b,sport
881,5a,sport
881,6c  *,sport
881,6a+,sport
881,6c  **,sport
881,6b  *,sport
881,6a,sport
881,7a+,sport
881,6b+,sport
881,6a+,sport
881,7a  *,sport
881,E1  *,trad
881,E2 5b *,trad
881,7b  **,sport
881,7a  **,sport
881,7a  *,sport
881,6c+  *,sport
881,7a  **,sport
881,7c+  **,sport
881,7b+  ***,sport
881,7b+  ***,sport
881,7b+  ***,sport
881,7b+  **,sport
881,7b+  **,sport
881,7c  *,sport
881,8a  **,sport
881,8a+  ***,sport
881,E5 6a **,trad
881,E3 5c,trad
881,E5 6a,trad
881,E5 6a,trad
881,E5 6a *,trad
881,E3 5c,trad
881,E4 6a *,trad
881,6c,sport
881,6c+,sport
881,7c+  **,sport
881,7a+  *,sport
881,E4 6b,trad
881,7a  *,sport
881,6c  *,sport
881,6a+,sport
881,5b,sport
881,E1 5b,trad
881,E1 5b,trad
881,VS 4c,trad
881,S,trad
881,E3 5c,trad
881,E3 5c *,trad
881,V7  **,bouldering
881,f7A  ***,bouldering
881,f7B  ***,bouldering
881,V8+  **,bouldering
881,f7B  ***,bouldering
881,E3 6a,trad
881,E4 6a,trad
881,E3 6a,trad
881,E2 5c,trad
881,E1 5a,trad
881,VS 5a,trad
881,VD,trad
881,VD,trad
881,S,trad
881,VS 4b,trad
881,VS 4b,trad
881,E3 5c *,trad
881,E3 5c,trad
881,VD,trad
881,VD  **,trad
881,E1 5b,trad
881,E5 6b *,trad
881,E6 6b **,trad
881,E2 5c *,trad
881,E2 5b *,trad
881,E3 6b,trad
881,HVS 5a *,trad
881,HS 4b *,trad
881,E2 5b,trad
881,E2 5b,trad
881,VS 4c,trad
881,HVS 4c *,trad
881,VS 4c,trad
881,5c  *,sport
881,HVS 5a,trad
881,6b  **,sport
881,6a+  ****,sport
881,6b  **,sport
881,6b+  **,sport
881,6b+  **,sport
881,6b  **,sport
881,Project,unknown
881,6b+  ***,sport
881,6b  *,sport
881,6b  **,sport
881,6b+  *,sport
881,6b  *,sport
881,8a  ***,sport
881,7c  ***,sport
881,E1 5b,trad
881,E5 6a,trad
881,E1 5b,trad
881,VS 4c,trad
881,HS 4b,trad
881,HVS 5a,trad
881,VS 4c *,trad
881,E1 5b,trad
881,HVS 5a,trad
881,VS 4c,trad
881,VS 4c,trad
881,E1 5b *,trad
881,HS 4b **,trad
881,HVS 5a **,trad
881,HS 4b *,trad
881,VD,trad
881,HVS 5a,trad
881,E2 5c **,trad
881,E4 6b,trad
881,E2 6a,trad
881,E1 5c,trad
881,E2 5c,trad
881,HVS 5a,trad
881,HVS 5a,trad
881,E3 6a,trad
881,E3 5c,trad
881,E5 6a *,trad
881,VS 4c,trad
881,E3 6a *,trad
881,E2 5c **,trad
881,VS 4c,trad
881,E4 6c,trad
881,HVS 4c,trad
881,E2 5b *,trad
881,E2 5c *,trad
881,E4 6a,trad
881,E5 6a *,trad
881,HVS 5a ***,trad
881,E1 5b,trad
881,HVS 4c,trad
881,VS 4c,trad
881,VS 4c,trad
881,VS 4b *,trad
881,HVS 5a *,trad
881,VS 4b *,trad
881,VS 4c *,trad
881,VS 4c *,trad
881,HVS 4c **,trad
881,4b,sport
881,5a,sport
